1. New Hero
2. Load Hero
3. Exit


[Gogu level 1 moulineta]

1. Set name
2. Set class

3. To Adventure !



----------------
Name: xxx

----------------

Class:
1. warrior
2. mage
3. moulineta

0. back

-----------------

ADVENTURE



LOOT !!!

You find: Sword +5
You have: Sword +3

1. Take new item
2. Keep old item